-------------------------------------------------------------------------------
Test set: com.mini_projet.services.OrderServiceTest
-------------------------------------------------------------------------------
Tests run: 3, Failures: 0, Errors: 0, Skipped: 0, Time elapsed: 0.677 s -- in com.mini_projet.services.OrderServiceTest
