com\mini_projet\services\OrderServiceTest.class
com\mini_projet\MiniProjetApplicationTests.class
com\mini_projet\controllers\ProductControllerIntegrationTest.class
com\mini_projet\services\ProductServiceTest.class
