C:\Users\majdi\Desktop\mini-projet\src\test\java\com\mini_projet\controllers\ProductControllerIntegrationTest.java
C:\Users\majdi\Desktop\mini-projet\src\test\java\com\mini_projet\MiniProjetApplicationTests.java
C:\Users\majdi\Desktop\mini-projet\src\test\java\com\mini_projet\services\OrderServiceTest.java
C:\Users\majdi\Desktop\mini-projet\src\test\java\com\mini_projet\services\ProductServiceTest.java
